\relax 
\providecommand\hyper@newdestlabel[2]{}
\providecommand\HyperFirstAtBeginDocument{\AtBeginDocument}
\HyperFirstAtBeginDocument{\ifx\hyper@anchor\@undefined
\global\let\oldcontentsline\contentsline
\gdef\contentsline#1#2#3#4{\oldcontentsline{#1}{#2}{#3}}
\global\let\oldnewlabel\newlabel
\gdef\newlabel#1#2{\newlabelxx{#1}#2}
\gdef\newlabelxx#1#2#3#4#5#6{\oldnewlabel{#1}{{#2}{#3}}}
\AtEndDocument{\ifx\hyper@anchor\@undefined
\let\contentsline\oldcontentsline
\let\newlabel\oldnewlabel
\fi}
\fi}
\global\let\hyper@last\relax 
\gdef\HyperFirstAtBeginDocument#1{#1}
\providecommand\HyField@AuxAddToFields[1]{}
\providecommand\HyField@AuxAddToCoFields[2]{}
\@writefile{toc}{\contentsline {chapter}{\numberline {1}Deprecated List}{1}{chapter.1}}
\@writefile{lof}{\addvspace {10\p@ }}
\@writefile{lot}{\addvspace {10\p@ }}
\newlabel{deprecated}{{1}{1}{Deprecated List}{chapter.1}{}}
\newlabel{deprecated__deprecated000001}{{1}{1}{Deprecated List}{chapter.1}{}}
\newlabel{deprecated__deprecated000003}{{1}{1}{Deprecated List}{chapter.1}{}}
\newlabel{deprecated__deprecated000002}{{1}{1}{Deprecated List}{chapter.1}{}}
\newlabel{deprecated__deprecated000004}{{1}{1}{Deprecated List}{chapter.1}{}}
\@writefile{toc}{\contentsline {chapter}{\numberline {2}Hierarchical Index}{3}{chapter.2}}
\@writefile{lof}{\addvspace {10\p@ }}
\@writefile{lot}{\addvspace {10\p@ }}
\@writefile{toc}{\contentsline {section}{\numberline {2.1}Class Hierarchy}{3}{section.2.1}}
\@writefile{toc}{\contentsline {chapter}{\numberline {3}Class Index}{5}{chapter.3}}
\@writefile{lof}{\addvspace {10\p@ }}
\@writefile{lot}{\addvspace {10\p@ }}
\@writefile{toc}{\contentsline {section}{\numberline {3.1}Class List}{5}{section.3.1}}
\@writefile{toc}{\contentsline {chapter}{\numberline {4}File Index}{7}{chapter.4}}
\@writefile{lof}{\addvspace {10\p@ }}
\@writefile{lot}{\addvspace {10\p@ }}
\@writefile{toc}{\contentsline {section}{\numberline {4.1}File List}{7}{section.4.1}}
\@writefile{toc}{\contentsline {chapter}{\numberline {5}Class Documentation}{9}{chapter.5}}
\@writefile{lof}{\addvspace {10\p@ }}
\@writefile{lot}{\addvspace {10\p@ }}
\@writefile{toc}{\contentsline {section}{\numberline {5.1}Adc\discretionary {-}{}{}Id Class Reference}{9}{section.5.1}}
\newlabel{classAdcId}{{5.1}{9}{Adc\-Id Class Reference}{section.5.1}{}}
\newlabel{classAdcId_a3cb8ca3ab95b147b8995dfceedd58d32}{{5.1}{9}{Public Member Functions}{section*.2}{}}
\newlabel{classAdcId_a42069b385022ede1b24e643320165df3}{{5.1}{9}{Public Member Functions}{section*.2}{}}
\newlabel{classAdcId_aeb1b2d996f5709e6e96779b70b2d9579}{{5.1}{9}{Public Member Functions}{section*.2}{}}
\newlabel{classAdcId_af205c2dc0e80842f8362c56de8ea862a}{{5.1}{9}{Public Member Functions}{section*.2}{}}
\newlabel{classAdcId_a8cd5c8c50694a84bc17e4ebf37c45c6b}{{5.1}{9}{Public Member Functions}{section*.2}{}}
\newlabel{classAdcId_a1525fc3e28ef83f7e5753571129b69a6}{{5.1}{9}{Public Member Functions}{section*.2}{}}
\newlabel{classAdcId_ad8b631526e03368ed8e8a70d4127de89}{{5.1}{9}{Protected Attributes}{section*.3}{}}
\newlabel{classAdcId_ae4ab310ac8b0bcfcfc048f7f58b5b520}{{5.1}{9}{Protected Attributes}{section*.3}{}}
\newlabel{classAdcId_ac0ebdee79232683e84d88cbd6e617618}{{5.1}{9}{Protected Attributes}{section*.3}{}}
\newlabel{classAdcId_aafe1a9456aefc8fc76d3781422f30ccd}{{5.1}{9}{Protected Attributes}{section*.3}{}}
\@writefile{toc}{\contentsline {section}{\numberline {5.2}Address\discretionary {-}{}{}Space\discretionary {-}{}{}:\discretionary {-}{}{}:A\discretionary {-}{}{}S\discretionary {-}{}{}Delegating\discretionary {-}{}{}Method$<$ Object\discretionary {-}{}{}Type $>$ Class Template Reference}{9}{section.5.2}}
\newlabel{classAddressSpace_1_1ASDelegatingMethod}{{5.2}{9}{Address\-Space\-:\-:A\-S\-Delegating\-Method$<$ Object\-Type $>$ Class Template Reference}{section.5.2}{}}
\newlabel{classAddressSpace_1_1ASDelegatingMethod_abaa6944e1b9e51a3f8d534ae45b79c4b}{{5.2}{10}{Public Member Functions}{section*.4}{}}
\newlabel{classAddressSpace_1_1ASDelegatingMethod_ae75387585744b3969233810b1eb18286}{{5.2}{10}{Public Member Functions}{section*.4}{}}
\newlabel{classAddressSpace_1_1ASDelegatingMethod_ac68e0fc5de420cdc80d823c0e567f9bb}{{5.2}{10}{Public Member Functions}{section*.4}{}}
\@writefile{toc}{\contentsline {section}{\numberline {5.3}Address\discretionary {-}{}{}Space\discretionary {-}{}{}:\discretionary {-}{}{}:A\discretionary {-}{}{}S\discretionary {-}{}{}Delegating\discretionary {-}{}{}Variable$<$ Object\discretionary {-}{}{}Type $>$ Class Template Reference}{10}{section.5.3}}
\newlabel{classAddressSpace_1_1ASDelegatingVariable}{{5.3}{10}{Address\-Space\-:\-:A\-S\-Delegating\-Variable$<$ Object\-Type $>$ Class Template Reference}{section.5.3}{}}
\newlabel{classAddressSpace_1_1ASDelegatingVariable_a73ce404105fa9564c20eb5e3139f1780}{{5.3}{10}{Public Member Functions}{section*.5}{}}
\newlabel{classAddressSpace_1_1ASDelegatingVariable_a2dbb2f64423f152cfeeee6b4215c2ee4}{{5.3}{10}{Public Member Functions}{section*.5}{}}
\newlabel{classAddressSpace_1_1ASDelegatingVariable_a5dcc9362d6e93d93b893fba41980fc96}{{5.3}{10}{Public Member Functions}{section*.5}{}}
\@writefile{toc}{\contentsline {section}{\numberline {5.4}Address\discretionary {-}{}{}Space\discretionary {-}{}{}:\discretionary {-}{}{}:A\discretionary {-}{}{}S\discretionary {-}{}{}Node\discretionary {-}{}{}Manager Class Reference}{10}{section.5.4}}
\newlabel{classAddressSpace_1_1ASNodeManager}{{5.4}{10}{Address\-Space\-:\-:A\-S\-Node\-Manager Class Reference}{section.5.4}{}}
\gdef \PWST@i{1}
\newlabel{classAddressSpace_1_1ASNodeManager_a4b09b1b9017d2071592a44a1db670364}{{5.4}{11}{Public Member Functions}{section*.7}{}}
\newlabel{classAddressSpace_1_1ASNodeManager_ac853543d07cec5b75ad550a384f2c436}{{5.4}{11}{Public Member Functions}{section*.7}{}}
\newlabel{classAddressSpace_1_1ASNodeManager_a5abd41135a38baf39cbc80837feef00d}{{5.4}{11}{Public Member Functions}{section*.7}{}}
\newlabel{classAddressSpace_1_1ASNodeManager_adf4cef001dd8366576fd3460c3b15642}{{5.4}{11}{Public Member Functions}{section*.7}{}}
\newlabel{classAddressSpace_1_1ASNodeManager_a7222aedaca89e506f891abf1b5e1ff6f}{{5.4}{11}{Public Member Functions}{section*.7}{}}
\newlabel{classAddressSpace_1_1ASNodeManager_a09aa432c6d3c19c6597404dfacdcbfa2}{{5.4}{11}{Public Member Functions}{section*.7}{}}
\newlabel{classAddressSpace_1_1ASNodeManager_a408c49c1dac8fc52b3e5e239c71a1cb2}{{5.4}{11}{Public Member Functions}{section*.7}{}}
\newlabel{classAddressSpace_1_1ASNodeManager_a136cc5ef6e8d08d46cd3146f37a41c84}{{5.4}{11}{Public Member Functions}{section*.7}{}}
\@writefile{toc}{\contentsline {subsection}{\numberline {5.4.1}Member Function Documentation}{11}{subsection.5.4.1}}
\@writefile{toc}{\contentsline {subsubsection}{\numberline {5.4.1.1}make\discretionary {-}{}{}Child\discretionary {-}{}{}Node\discretionary {-}{}{}Id}{11}{subsubsection.5.4.1.1}}
\newlabel{classAddressSpace_1_1ASNodeManager_a23362fa5147da4c12e28b74ee44eddba}{{5.4.1.1}{11}{make\-Child\-Node\-Id}{subsubsection.5.4.1.1}{}}
\@writefile{toc}{\contentsline {section}{\numberline {5.5}Address\discretionary {-}{}{}Space\discretionary {-}{}{}:\discretionary {-}{}{}:A\discretionary {-}{}{}S\discretionary {-}{}{}Source\discretionary {-}{}{}Variable Class Reference}{11}{section.5.5}}
\newlabel{classAddressSpace_1_1ASSourceVariable}{{5.5}{11}{Address\-Space\-:\-:A\-S\-Source\-Variable Class Reference}{section.5.5}{}}
\newlabel{classAddressSpace_1_1ASSourceVariable_aa8c19241b92b85fd4188c731b1cb8776}{{5.5}{12}{Public Member Functions}{section*.8}{}}
\newlabel{classAddressSpace_1_1ASSourceVariable_af99cecfebc8db125868d45fe82074ace}{{5.5}{12}{Public Member Functions}{section*.8}{}}
\@writefile{toc}{\contentsline {section}{\numberline {5.6}Address\discretionary {-}{}{}Space\discretionary {-}{}{}:\discretionary {-}{}{}:A\discretionary {-}{}{}S\discretionary {-}{}{}Source\discretionary {-}{}{}Variable\discretionary {-}{}{}Io\discretionary {-}{}{}Manager Class Reference}{12}{section.5.6}}
\newlabel{classAddressSpace_1_1ASSourceVariableIoManager}{{5.6}{12}{Address\-Space\-:\-:A\-S\-Source\-Variable\-Io\-Manager Class Reference}{section.5.6}{}}
\newlabel{classAddressSpace_1_1ASSourceVariableIoManager_a9df6ceac4f4d4ec195e27ba151a2aa2b}{{5.6}{12}{Public Member Functions}{section*.9}{}}
\newlabel{classAddressSpace_1_1ASSourceVariableIoManager_a308e7ad1b50074805796b3d5994406d6}{{5.6}{12}{Public Member Functions}{section*.9}{}}
\newlabel{classAddressSpace_1_1ASSourceVariableIoManager_ac70b0356f72a3ec12bf8c1e8262ac398}{{5.6}{12}{Public Member Functions}{section*.9}{}}
\newlabel{classAddressSpace_1_1ASSourceVariableIoManager_aab8209a37b2f30a10174c4db4c05cb09}{{5.6}{12}{Public Member Functions}{section*.9}{}}
\newlabel{classAddressSpace_1_1ASSourceVariableIoManager_a384d3c2d8ebfd1e38f6087202a24b8ee}{{5.6}{12}{Public Member Functions}{section*.9}{}}
\newlabel{classAddressSpace_1_1ASSourceVariableIoManager_a3c19a04778839a9af5a30bf61acdf85b}{{5.6}{12}{Public Member Functions}{section*.9}{}}
\newlabel{classAddressSpace_1_1ASSourceVariableIoManager_a18e9c7d89459a9b0f0952ad467522a65}{{5.6}{12}{Public Member Functions}{section*.9}{}}
\newlabel{classAddressSpace_1_1ASSourceVariableIoManager_a6cbbdab0107a23803d082f60570e002c}{{5.6}{12}{Public Member Functions}{section*.9}{}}
\@writefile{toc}{\contentsline {section}{\numberline {5.7}Base\discretionary {-}{}{}Quasar\discretionary {-}{}{}Server Class Reference}{12}{section.5.7}}
\newlabel{classBaseQuasarServer}{{5.7}{12}{Base\-Quasar\-Server Class Reference}{section.5.7}{}}
\newlabel{classBaseQuasarServer_a6a0808040f367936ea48a9f8d32352dc}{{5.7}{13}{Public Member Functions}{section*.10}{}}
\newlabel{classBaseQuasarServer_aabb4cfc26a06786b0c4f5b90c13eb2e8}{{5.7}{13}{Protected Member Functions}{section*.11}{}}
\newlabel{classBaseQuasarServer_a57cf1b83ac55c202eb5e8ef24b43d9c4}{{5.7}{13}{Protected Member Functions}{section*.11}{}}
\newlabel{classBaseQuasarServer_a5645f3a9ac0238c307df5d07000fbeb6}{{5.7}{13}{Protected Member Functions}{section*.11}{}}
\newlabel{classBaseQuasarServer_aaa17cc90ae48046edb3bce213f725a17}{{5.7}{13}{Protected Member Functions}{section*.11}{}}
\newlabel{classBaseQuasarServer_ae1f23b6bc0ad8ab7088510a669735140}{{5.7}{13}{Protected Member Functions}{section*.11}{}}
\newlabel{classBaseQuasarServer_a1dde94295cbeab30c91fadefc945d75a}{{5.7}{13}{Protected Member Functions}{section*.11}{}}
\newlabel{classBaseQuasarServer_afc90cee1f204c83eb0552716077321cd}{{5.7}{13}{Protected Member Functions}{section*.11}{}}
\newlabel{classBaseQuasarServer_ae4efc9de44d22647e9819924c1d7f0a9}{{5.7}{13}{Protected Member Functions}{section*.11}{}}
\newlabel{classBaseQuasarServer_ac2f0e116349647a6de44daed0d664bc3}{{5.7}{13}{Protected Member Functions}{section*.11}{}}
\newlabel{classBaseQuasarServer_a6b0708355c4615ff6c1d89a4035ef14d}{{5.7}{13}{Static Protected Member Functions}{section*.12}{}}
\newlabel{classBaseQuasarServer_afc5b94dfd4bda19b542758abc78c1393}{{5.7}{13}{Protected Attributes}{section*.13}{}}
\newlabel{classBaseQuasarServer_abe3571b1e63898fee97c4076cf8be4a1}{{5.7}{13}{Protected Attributes}{section*.13}{}}
\@writefile{toc}{\contentsline {subsection}{\numberline {5.7.1}Member Function Documentation}{13}{subsection.5.7.1}}
\@writefile{toc}{\contentsline {subsubsection}{\numberline {5.7.1.1}get\discretionary {-}{}{}Node\discretionary {-}{}{}Manager}{13}{subsubsection.5.7.1.1}}
\newlabel{classBaseQuasarServer_a5d77681c9b447c2fddb381bcac0345be}{{5.7.1.1}{13}{get\-Node\-Manager}{subsubsection.5.7.1.1}{}}
\@writefile{toc}{\contentsline {section}{\numberline {5.8}Address\discretionary {-}{}{}Space\discretionary {-}{}{}:\discretionary {-}{}{}:Change\discretionary {-}{}{}Notifying\discretionary {-}{}{}Variable Class Reference}{14}{section.5.8}}
\newlabel{classAddressSpace_1_1ChangeNotifyingVariable}{{5.8}{14}{Address\-Space\-:\-:Change\-Notifying\-Variable Class Reference}{section.5.8}{}}
\newlabel{classAddressSpace_1_1ChangeNotifyingVariable_aa617388b072e5aad6ed129ea34109b57}{{5.8}{14}{Public Types}{section*.14}{}}
\newlabel{classAddressSpace_1_1ChangeNotifyingVariable_ad83b54758e73d831d0dc80b7d683088f}{{5.8}{14}{Public Member Functions}{section*.15}{}}
\newlabel{classAddressSpace_1_1ChangeNotifyingVariable_aa436a3e924e19b9194f16a0cac0e8238}{{5.8}{14}{Public Member Functions}{section*.15}{}}
\newlabel{classAddressSpace_1_1ChangeNotifyingVariable_a4e6089cd450bca1a05359c2674365be2}{{5.8}{14}{Public Member Functions}{section*.15}{}}
\newlabel{classAddressSpace_1_1ChangeNotifyingVariable_a423a823cc27c783c11d0be1f6039063a}{{5.8}{14}{Public Member Functions}{section*.15}{}}
\newlabel{classAddressSpace_1_1ChangeNotifyingVariable_aefff90e2993fa67d6a18a8f67ad7d402}{{5.8}{14}{Public Member Functions}{section*.15}{}}
\@writefile{toc}{\contentsline {section}{\numberline {5.9}Device\discretionary {-}{}{}:\discretionary {-}{}{}:D\discretionary {-}{}{}Clk\discretionary {-}{}{}Des\discretionary {-}{}{}Scan Class Reference}{14}{section.5.9}}
\newlabel{classDevice_1_1DClkDesScan}{{5.9}{14}{Device\-:\-:D\-Clk\-Des\-Scan Class Reference}{section.5.9}{}}
\newlabel{classDevice_1_1DClkDesScan_a5cea87c22e89f43304a0225efb422598}{{5.9}{14}{Public Member Functions}{section*.16}{}}
\newlabel{classDevice_1_1DClkDesScan_a16c903564a899ee4a9fb7d11a6f508ff}{{5.9}{14}{Public Member Functions}{section*.16}{}}
\newlabel{classDevice_1_1DClkDesScan_abbd71217de4d3215acb756110cd54e66}{{5.9}{14}{Public Member Functions}{section*.16}{}}
\newlabel{classDevice_1_1DClkDesScan_ac86f52d2512f4a22f6195343ee7d06f1}{{5.9}{14}{Public Member Functions}{section*.16}{}}
\newlabel{classDevice_1_1DClkDesScan_aaadaf6eebe1069947e80bed9da773290}{{5.9}{14}{Public Member Functions}{section*.16}{}}
\newlabel{classDevice_1_1DClkDesScan_a31d5a6af19e4455d8ecd095c1c4ee88e}{{5.9}{15}{Public Member Functions}{section*.16}{}}
\newlabel{classDevice_1_1DClkDesScan_ac7c155c0c12953e9006258b5703b4c91}{{5.9}{15}{Public Member Functions}{section*.16}{}}
\newlabel{classDevice_1_1DClkDesScan_aca0a9b47812a0a5e569e6190bd1bc000}{{5.9}{15}{Public Member Functions}{section*.16}{}}
\newlabel{classDevice_1_1DClkDesScan_ad67f24cb2e0e353efa9176878aa098c1}{{5.9}{15}{Public Member Functions}{section*.16}{}}
\newlabel{classDevice_1_1DClkDesScan_ab375e1b9679e7d6ff2aabfb559ade53f}{{5.9}{15}{Public Member Functions}{section*.16}{}}
\newlabel{classDevice_1_1DClkDesScan_a1b7989983840efcb4d9a5b7f26a00315}{{5.9}{15}{Public Member Functions}{section*.16}{}}
\newlabel{classDevice_1_1DClkDesScan_a254e3fe4295a550fc26c7c6281a24fda}{{5.9}{15}{Public Member Functions}{section*.16}{}}
\newlabel{classDevice_1_1DClkDesScan_a21dd26f9adf321b48732354ff97ef8a9}{{5.9}{15}{Public Member Functions}{section*.16}{}}
\newlabel{classDevice_1_1DClkDesScan_a71c4a40bc25b8a03bb3f62e6bb11f7c1}{{5.9}{15}{Public Member Functions}{section*.16}{}}
\newlabel{classDevice_1_1DClkDesScan_ab86208b1345c3c57a8ecb01d93dc3e70}{{5.9}{15}{Public Member Functions}{section*.16}{}}
\newlabel{classDevice_1_1DClkDesScan_a9be1f00c66d9cf0fa569cceddee5e60f}{{5.9}{15}{Public Attributes}{section*.17}{}}
\@writefile{toc}{\contentsline {section}{\numberline {5.10}Device\discretionary {-}{}{}:\discretionary {-}{}{}:D\discretionary {-}{}{}Fiber\discretionary {-}{}{}Mon Class Reference}{15}{section.5.10}}
\newlabel{classDevice_1_1DFiberMon}{{5.10}{15}{Device\-:\-:D\-Fiber\-Mon Class Reference}{section.5.10}{}}
\newlabel{classDevice_1_1DFiberMon_a4ab729ce59d537212717a20aa46bef4a}{{5.10}{15}{Public Member Functions}{section*.18}{}}
\@writefile{toc}{\contentsline {section}{\numberline {5.11}Device\discretionary {-}{}{}:\discretionary {-}{}{}:D\discretionary {-}{}{}L\discretionary {-}{}{}Ar\discretionary {-}{}{}Backend Class Reference}{15}{section.5.11}}
\newlabel{classDevice_1_1DLArBackend}{{5.11}{15}{Device\-:\-:D\-L\-Ar\-Backend Class Reference}{section.5.11}{}}
\gdef \PWST@ii{1}
\gdef \PWST@iii{1}
\newlabel{classDevice_1_1DLArBackend_acadd5e7871cea09262c4e7a0f6288380}{{5.11}{16}{Public Member Functions}{section*.19}{}}
\@writefile{toc}{\contentsline {subsection}{\numberline {5.11.1}Member Function Documentation}{16}{subsection.5.11.1}}
\@writefile{toc}{\contentsline {subsubsection}{\numberline {5.11.1.1}create\discretionary {-}{}{}Adc\discretionary {-}{}{}Id}{16}{subsubsection.5.11.1.1}}
\newlabel{classDevice_1_1DLArBackend_ae6d286da306d2fbfbb6402757a61da54}{{5.11.1.1}{16}{create\-Adc\-Id}{subsubsection.5.11.1.1}{}}
\@writefile{toc}{\contentsline {subsubsection}{\numberline {5.11.1.2}create\discretionary {-}{}{}Fiber\discretionary {-}{}{}Id}{16}{subsubsection.5.11.1.2}}
\newlabel{classDevice_1_1DLArBackend_a7dc858692e2bad46774504b7e4b2c576}{{5.11.1.2}{16}{create\-Fiber\-Id}{subsubsection.5.11.1.2}{}}
\@writefile{toc}{\contentsline {section}{\numberline {5.12}Device\discretionary {-}{}{}:\discretionary {-}{}{}:D\discretionary {-}{}{}Locx2\discretionary {-}{}{}Scan Class Reference}{16}{section.5.12}}
\newlabel{classDevice_1_1DLocx2Scan}{{5.12}{16}{Device\-:\-:D\-Locx2\-Scan Class Reference}{section.5.12}{}}
\newlabel{classDevice_1_1DLocx2Scan_a27f5035bdb49243662ae19f4a86000e8}{{5.12}{17}{Public Member Functions}{section*.20}{}}
\newlabel{classDevice_1_1DLocx2Scan_a72b17f145079a2eec0bc338f07ec9baa}{{5.12}{17}{Public Member Functions}{section*.20}{}}
\newlabel{classDevice_1_1DLocx2Scan_a5d72e3d40a5b2c2489eae234bfd8678a}{{5.12}{17}{Public Member Functions}{section*.20}{}}
\newlabel{classDevice_1_1DLocx2Scan_accf5cf633ed0c99e836b441c4f4b1f5d}{{5.12}{17}{Public Member Functions}{section*.20}{}}
\newlabel{classDevice_1_1DLocx2Scan_aba57e15a7bf005ceb44a8be16c3f2c99}{{5.12}{17}{Public Member Functions}{section*.20}{}}
\newlabel{classDevice_1_1DLocx2Scan_af2fe329e71792b1132a192b4caf9de5d}{{5.12}{17}{Public Member Functions}{section*.20}{}}
\newlabel{classDevice_1_1DLocx2Scan_a59808f9529b478f575d63c3196a47403}{{5.12}{17}{Public Member Functions}{section*.20}{}}
\newlabel{classDevice_1_1DLocx2Scan_ac9ab3d0b30549da24b46fbe157fff007}{{5.12}{17}{Public Member Functions}{section*.20}{}}
\newlabel{classDevice_1_1DLocx2Scan_a3b3413b5935f7418050c61c7738dba5b}{{5.12}{17}{Public Member Functions}{section*.20}{}}
\newlabel{classDevice_1_1DLocx2Scan_a7753773e1f27561d9caa6df00a93133d}{{5.12}{17}{Public Member Functions}{section*.20}{}}
\newlabel{classDevice_1_1DLocx2Scan_a0a3588c5b13c7ace8e04f36d75e1afd6}{{5.12}{17}{Public Attributes}{section*.21}{}}
\@writefile{toc}{\contentsline {section}{\numberline {5.13}Device\discretionary {-}{}{}:\discretionary {-}{}{}:D\discretionary {-}{}{}Ltdb Class Reference}{17}{section.5.13}}
\newlabel{classDevice_1_1DLtdb}{{5.13}{17}{Device\-:\-:D\-Ltdb Class Reference}{section.5.13}{}}
\newlabel{classDevice_1_1DLtdb_a1a1805a31eab73a9e0ab8c59e0c1ff21}{{5.13}{17}{Public Member Functions}{section*.22}{}}
\newlabel{classDevice_1_1DLtdb_aa8ecd495aed29cd51d8801d9064d002b}{{5.13}{17}{Public Member Functions}{section*.22}{}}
\newlabel{classDevice_1_1DLtdb_adf97ee4365ea7b0513ca4a765d805cb6}{{5.13}{17}{Public Member Functions}{section*.22}{}}
\newlabel{classDevice_1_1DLtdb_a2b3b92770ff857621049998a20c7ee9c}{{5.13}{17}{Public Member Functions}{section*.22}{}}
\newlabel{classDevice_1_1DLtdb_a0b3c735b77a16fac542ab3930051106e}{{5.13}{17}{Public Member Functions}{section*.22}{}}
\newlabel{classDevice_1_1DLtdb_aa8bdc7472d92e4d8e857bb7d6396514c}{{5.13}{17}{Public Member Functions}{section*.22}{}}
\newlabel{classDevice_1_1DLtdb_a4658f2acd64f861ffc384fb652954e83}{{5.13}{17}{Public Member Functions}{section*.22}{}}
\newlabel{classDevice_1_1DLtdb_af58183ddf95e822ecbd0b2da97bba4ab}{{5.13}{17}{Public Member Functions}{section*.22}{}}
\newlabel{classDevice_1_1DLtdb_a70084b44fde0ccedbf79fb210bf4ac46}{{5.13}{17}{Public Member Functions}{section*.22}{}}
\newlabel{classDevice_1_1DLtdb_add8e6472b9dfaa28bfbb663dcbfdd200}{{5.13}{18}{Public Member Functions}{section*.22}{}}
\newlabel{classDevice_1_1DLtdb_a870057f6d265b8d4ea5091750ce5bf16}{{5.13}{18}{Public Member Functions}{section*.22}{}}
\newlabel{classDevice_1_1DLtdb_a3a8b2f8552ace9a54647d6d08a7334de}{{5.13}{18}{Public Member Functions}{section*.22}{}}
\newlabel{classDevice_1_1DLtdb_ab6185db2bd5f1bfeb012844d08ca225c}{{5.13}{18}{Public Member Functions}{section*.22}{}}
\newlabel{classDevice_1_1DLtdb_a38e8ee7d013a9243b17871b188cd6e54}{{5.13}{18}{Public Member Functions}{section*.22}{}}
\newlabel{classDevice_1_1DLtdb_a7b94c1e005ea80cfe5116d4d89b5a64a}{{5.13}{18}{Public Member Functions}{section*.22}{}}
\newlabel{classDevice_1_1DLtdb_afc7855537207afae6f3fa6107adf93b4}{{5.13}{18}{Public Attributes}{section*.23}{}}
\newlabel{classDevice_1_1DLtdb_a2c5edd6596fb21708b6821a83d1941ac}{{5.13}{18}{Public Attributes}{section*.23}{}}
\@writefile{toc}{\contentsline {section}{\numberline {5.14}Device\discretionary {-}{}{}:\discretionary {-}{}{}:D\discretionary {-}{}{}Ltdb\discretionary {-}{}{}A\discretionary {-}{}{}D\discretionary {-}{}{}C\discretionary {-}{}{}L\discretionary {-}{}{}O\discretionary {-}{}{}Cx2 Class Reference}{18}{section.5.14}}
\newlabel{classDevice_1_1DLtdbADCLOCx2}{{5.14}{18}{Device\-:\-:D\-Ltdb\-A\-D\-C\-L\-O\-Cx2 Class Reference}{section.5.14}{}}
\newlabel{classDevice_1_1DLtdbADCLOCx2_a2de7faa40516bb454f4e5ebbced3bef2}{{5.14}{18}{Public Member Functions}{section*.24}{}}
\newlabel{classDevice_1_1DLtdbADCLOCx2_a6b88131befb7128010d044e91e504a95}{{5.14}{18}{Public Member Functions}{section*.24}{}}
\newlabel{classDevice_1_1DLtdbADCLOCx2_a772167ab81152ab9ca65c27ab5bd6e28}{{5.14}{18}{Public Member Functions}{section*.24}{}}
\newlabel{classDevice_1_1DLtdbADCLOCx2_ab1ad04f5fd61ca86dc381a3c3fb46a47}{{5.14}{18}{Public Member Functions}{section*.24}{}}
\newlabel{classDevice_1_1DLtdbADCLOCx2_a09d704ba9ab7c777bf86f31508559db4}{{5.14}{18}{Public Member Functions}{section*.24}{}}
\newlabel{classDevice_1_1DLtdbADCLOCx2_aecef8cc0fab5085f1cb74bc0efab565a}{{5.14}{18}{Public Member Functions}{section*.24}{}}
\newlabel{classDevice_1_1DLtdbADCLOCx2_a2bc2c1d46f10d4a59c907d051c343c26}{{5.14}{18}{Public Member Functions}{section*.24}{}}
\@writefile{toc}{\contentsline {section}{\numberline {5.15}Device\discretionary {-}{}{}:\discretionary {-}{}{}:D\discretionary {-}{}{}Ltdb\discretionary {-}{}{}A\discretionary {-}{}{}D\discretionary {-}{}{}C\discretionary {-}{}{}Nevis Class Reference}{18}{section.5.15}}
\newlabel{classDevice_1_1DLtdbADCNevis}{{5.15}{18}{Device\-:\-:D\-Ltdb\-A\-D\-C\-Nevis Class Reference}{section.5.15}{}}
\newlabel{classDevice_1_1DLtdbADCNevis_a71a56732fd1cba4be064aa829dc33dfe}{{5.15}{19}{Public Member Functions}{section*.25}{}}
\newlabel{classDevice_1_1DLtdbADCNevis_a51c58a622503a30e39616018ae009aa2}{{5.15}{19}{Public Member Functions}{section*.25}{}}
\newlabel{classDevice_1_1DLtdbADCNevis_a3ef7c1d243c08072cc5453178e6232ae}{{5.15}{19}{Public Member Functions}{section*.25}{}}
\newlabel{classDevice_1_1DLtdbADCNevis_a19f282b876f506ce5d037c974ccd9a7b}{{5.15}{19}{Public Member Functions}{section*.25}{}}
\newlabel{classDevice_1_1DLtdbADCNevis_a9a31334f500a7d84edb862dcd59922cf}{{5.15}{19}{Public Member Functions}{section*.25}{}}
\newlabel{classDevice_1_1DLtdbADCNevis_a83c5b854c1927aaa229a1d971f5425d2}{{5.15}{19}{Public Member Functions}{section*.25}{}}
\newlabel{classDevice_1_1DLtdbADCNevis_ad09c414619f6e7f6a4f2bf45ae86ce37}{{5.15}{19}{Public Member Functions}{section*.25}{}}
\newlabel{classDevice_1_1DLtdbADCNevis_a6e0bfbc289ed4dd033de8a5be5bdb704}{{5.15}{19}{Public Member Functions}{section*.25}{}}
\newlabel{classDevice_1_1DLtdbADCNevis_a3439068a3d25483b8e85345d3d3ed4d6}{{5.15}{19}{Public Member Functions}{section*.25}{}}
\newlabel{classDevice_1_1DLtdbADCNevis_aa67856fdf2fe895b8b31c0913e21d8b2}{{5.15}{19}{Public Member Functions}{section*.25}{}}
\newlabel{classDevice_1_1DLtdbADCNevis_a0a24f8e9fa4a55675b64a46bd23f0e0d}{{5.15}{19}{Public Member Functions}{section*.25}{}}
\newlabel{classDevice_1_1DLtdbADCNevis_a781e76a70f1922b8836f1de0800eaa4f}{{5.15}{19}{Public Member Functions}{section*.25}{}}
\newlabel{classDevice_1_1DLtdbADCNevis_a444c8b9f95e43ff1d6da4f906ca6b838}{{5.15}{19}{Public Member Functions}{section*.25}{}}
\newlabel{classDevice_1_1DLtdbADCNevis_a01ede7d936c9e2844ca0453bb09158be}{{5.15}{19}{Public Member Functions}{section*.25}{}}
\newlabel{classDevice_1_1DLtdbADCNevis_a3803e418e3eafa305f25bf8916764c07}{{5.15}{19}{Public Member Functions}{section*.25}{}}
\newlabel{classDevice_1_1DLtdbADCNevis_aaf1a1310e04f2dad1d16f7e7d0e740c0}{{5.15}{19}{Public Member Functions}{section*.25}{}}
\newlabel{classDevice_1_1DLtdbADCNevis_ac963d4d539fe3f3f339fc1129fe4f289}{{5.15}{19}{Public Member Functions}{section*.25}{}}
\newlabel{classDevice_1_1DLtdbADCNevis_a6ec4de0cd6491ae1ef6bb0e2265123a0}{{5.15}{19}{Public Member Functions}{section*.25}{}}
\newlabel{classDevice_1_1DLtdbADCNevis_acc6a3be63ab22218d9a750d8c12645fa}{{5.15}{19}{Public Member Functions}{section*.25}{}}
\newlabel{classDevice_1_1DLtdbADCNevis_a61798397e0794251451b3b60a86d937b}{{5.15}{19}{Public Member Functions}{section*.25}{}}
\newlabel{classDevice_1_1DLtdbADCNevis_a8ebcf3b1aa5849f140fe39113b3f5158}{{5.15}{19}{Public Member Functions}{section*.25}{}}
\newlabel{classDevice_1_1DLtdbADCNevis_a1612689dcc4ea24009f972c4d0c3a082}{{5.15}{19}{Public Member Functions}{section*.25}{}}
\newlabel{classDevice_1_1DLtdbADCNevis_a3c3044c216d0f8dcd407c395c3a5e199}{{5.15}{19}{Public Member Functions}{section*.25}{}}
\newlabel{classDevice_1_1DLtdbADCNevis_a6938172dd186a4a4cd7b91dcfe3ee747}{{5.15}{19}{Public Member Functions}{section*.25}{}}
\newlabel{classDevice_1_1DLtdbADCNevis_a61fe5e716f5fc6c3195eb42de2e86e09}{{5.15}{19}{Public Member Functions}{section*.25}{}}
\newlabel{classDevice_1_1DLtdbADCNevis_aa1a1951a91fdad2938f16f3e5f6b5d44}{{5.15}{19}{Public Member Functions}{section*.25}{}}
\newlabel{classDevice_1_1DLtdbADCNevis_af01598d5944a9b2c9f9ef281f2d3a863}{{5.15}{19}{Public Member Functions}{section*.25}{}}
\newlabel{classDevice_1_1DLtdbADCNevis_a7b0a270e565b57d305e5d1441f10e2bc}{{5.15}{19}{Public Member Functions}{section*.25}{}}
\newlabel{classDevice_1_1DLtdbADCNevis_a05998ca4e81cbdbd5996257f00697a9a}{{5.15}{19}{Public Attributes}{section*.26}{}}
\newlabel{classDevice_1_1DLtdbADCNevis_a1ca31f967f726b7c3ed3b4d9e80834cd}{{5.15}{19}{Static Public Attributes}{section*.27}{}}
\newlabel{classDevice_1_1DLtdbADCNevis_a322a8539d7a89046c01bea9e0d0c982a}{{5.15}{19}{Static Public Attributes}{section*.27}{}}
\newlabel{classDevice_1_1DLtdbADCNevis_ac1610afdbbdf67ee81238591b218724f}{{5.15}{19}{Static Public Attributes}{section*.27}{}}
\@writefile{toc}{\contentsline {section}{\numberline {5.16}Device\discretionary {-}{}{}:\discretionary {-}{}{}:D\discretionary {-}{}{}Ltdb\discretionary {-}{}{}Fiber Class Reference}{20}{section.5.16}}
\newlabel{classDevice_1_1DLtdbFiber}{{5.16}{20}{Device\-:\-:D\-Ltdb\-Fiber Class Reference}{section.5.16}{}}
\newlabel{classDevice_1_1DLtdbFiber_a4f1cd6e21fb5cfdf341a00dd6b5a4181}{{5.16}{20}{Public Member Functions}{section*.28}{}}
\newlabel{classDevice_1_1DLtdbFiber_ab2a9d9a0de30207bf5f3822d3545be13}{{5.16}{20}{Public Member Functions}{section*.28}{}}
\newlabel{classDevice_1_1DLtdbFiber_a1be7cf6fb93c46f298f8176c1e168601}{{5.16}{20}{Public Member Functions}{section*.28}{}}
\newlabel{classDevice_1_1DLtdbFiber_a42bbd33945be85c6375d0b6b8f552a03}{{5.16}{20}{Public Member Functions}{section*.28}{}}
\newlabel{classDevice_1_1DLtdbFiber_aff33369ea1128fcb6d61e91dcc057d36}{{5.16}{20}{Public Member Functions}{section*.28}{}}
\newlabel{classDevice_1_1DLtdbFiber_a40c6390d296a102e9a1a2d339045292b}{{5.16}{20}{Public Member Functions}{section*.28}{}}
\newlabel{classDevice_1_1DLtdbFiber_ac3ef60ee28ca1fbda680f5213f4937b3}{{5.16}{20}{Public Member Functions}{section*.28}{}}
\newlabel{classDevice_1_1DLtdbFiber_a7cc0ce81361bc3ebe274c54430de8276}{{5.16}{20}{Public Member Functions}{section*.28}{}}
\newlabel{classDevice_1_1DLtdbFiber_a61574821e761b221481c58846e22b91d}{{5.16}{20}{Public Attributes}{section*.29}{}}
\@writefile{toc}{\contentsline {section}{\numberline {5.17}Device\discretionary {-}{}{}:\discretionary {-}{}{}:D\discretionary {-}{}{}Ltdb\discretionary {-}{}{}Fiber\discretionary {-}{}{}Pos1 Class Reference}{20}{section.5.17}}
\newlabel{classDevice_1_1DLtdbFiberPos1}{{5.17}{20}{Device\-:\-:D\-Ltdb\-Fiber\-Pos1 Class Reference}{section.5.17}{}}
\newlabel{classDevice_1_1DLtdbFiberPos1_acaae8a4c4fbdffeeaffa2858ecc0c6a9}{{5.17}{20}{Public Member Functions}{section*.30}{}}
\newlabel{classDevice_1_1DLtdbFiberPos1_a9cebf90228a85e231e4dcd11ef054559}{{5.17}{20}{Public Member Functions}{section*.30}{}}
\newlabel{classDevice_1_1DLtdbFiberPos1_ab4569ab379a195a632aee60fead6c219}{{5.17}{20}{Public Member Functions}{section*.30}{}}
\newlabel{classDevice_1_1DLtdbFiberPos1_ac6fee030f389b686a3f19b25c4cd5288}{{5.17}{20}{Public Member Functions}{section*.30}{}}
\newlabel{classDevice_1_1DLtdbFiberPos1_a5720793bec901a23b29a62209fbcc4e9}{{5.17}{20}{Public Member Functions}{section*.30}{}}
\newlabel{classDevice_1_1DLtdbFiberPos1_abec7189d8feb34140687b95ec9820da4}{{5.17}{20}{Public Member Functions}{section*.30}{}}
\newlabel{classDevice_1_1DLtdbFiberPos1_a216fe19cacf536287b67553ea845c5ff}{{5.17}{20}{Public Member Functions}{section*.30}{}}
\newlabel{classDevice_1_1DLtdbFiberPos1_a982252f5033aa4322ddc3778e402b98d}{{5.17}{20}{Public Member Functions}{section*.30}{}}
\@writefile{toc}{\contentsline {section}{\numberline {5.18}Device\discretionary {-}{}{}:\discretionary {-}{}{}:D\discretionary {-}{}{}Ltdb\discretionary {-}{}{}Fiber\discretionary {-}{}{}Pos2 Class Reference}{21}{section.5.18}}
\newlabel{classDevice_1_1DLtdbFiberPos2}{{5.18}{21}{Device\-:\-:D\-Ltdb\-Fiber\-Pos2 Class Reference}{section.5.18}{}}
\newlabel{classDevice_1_1DLtdbFiberPos2_a2e730b00d6e48e31eef29e446241dc1f}{{5.18}{21}{Public Member Functions}{section*.31}{}}
\newlabel{classDevice_1_1DLtdbFiberPos2_ac5b973504b56098fbebf06044ad5ff07}{{5.18}{21}{Public Member Functions}{section*.31}{}}
\newlabel{classDevice_1_1DLtdbFiberPos2_a725d985572d3c0bd1e33f4124643c153}{{5.18}{21}{Public Member Functions}{section*.31}{}}
\newlabel{classDevice_1_1DLtdbFiberPos2_a2191f1012dfc51badc652cccda56a311}{{5.18}{21}{Public Member Functions}{section*.31}{}}
\newlabel{classDevice_1_1DLtdbFiberPos2_a21f53d1abf9d56e9920f1268c13996c3}{{5.18}{21}{Public Member Functions}{section*.31}{}}
\newlabel{classDevice_1_1DLtdbFiberPos2_a3a65e0d8a99d7e51cbdd0c46ed69ac91}{{5.18}{21}{Public Member Functions}{section*.31}{}}
\newlabel{classDevice_1_1DLtdbFiberPos2_ac2f513115b7b0bd85ac217f0a68cb4f2}{{5.18}{21}{Public Member Functions}{section*.31}{}}
\newlabel{classDevice_1_1DLtdbFiberPos2_ad11ed599b9dd5771016d09d38bb6b5d9}{{5.18}{21}{Public Member Functions}{section*.31}{}}
\@writefile{toc}{\contentsline {section}{\numberline {5.19}Device\discretionary {-}{}{}:\discretionary {-}{}{}:D\discretionary {-}{}{}Ltdb\discretionary {-}{}{}G\discretionary {-}{}{}B\discretionary {-}{}{}Tx Class Reference}{21}{section.5.19}}
\newlabel{classDevice_1_1DLtdbGBTx}{{5.19}{21}{Device\-:\-:D\-Ltdb\-G\-B\-Tx Class Reference}{section.5.19}{}}
\newlabel{classDevice_1_1DLtdbGBTx_a093ee6ad3e45734754c5d9557c77f451}{{5.19}{21}{Public Member Functions}{section*.32}{}}
\newlabel{classDevice_1_1DLtdbGBTx_ae6351acf57c7a4fb0ff6d4871fcbfecb}{{5.19}{21}{Public Member Functions}{section*.32}{}}
\newlabel{classDevice_1_1DLtdbGBTx_acbbec77714d10ee4ccd8f32792c6367d}{{5.19}{21}{Public Member Functions}{section*.32}{}}
\newlabel{classDevice_1_1DLtdbGBTx_a17316f0ada4f8a573d4ace4676d25d29}{{5.19}{21}{Public Member Functions}{section*.32}{}}
\newlabel{classDevice_1_1DLtdbGBTx_a01a25829ecf87feffebd65a2667a78ff}{{5.19}{21}{Public Member Functions}{section*.32}{}}
\newlabel{classDevice_1_1DLtdbGBTx_a94e2215934406b2dbf85019c3a05ad25}{{5.19}{21}{Public Member Functions}{section*.32}{}}
\newlabel{classDevice_1_1DLtdbGBTx_afa8230c398f5461d8f1839441615a67a}{{5.19}{21}{Public Member Functions}{section*.32}{}}
\newlabel{classDevice_1_1DLtdbGBTx_a6ac3e995b7b0a7165232537e8ef17341}{{5.19}{21}{Public Member Functions}{section*.32}{}}
\newlabel{classDevice_1_1DLtdbGBTx_a35cf03e4bb6125652b1d52e5a3c8f6ac}{{5.19}{21}{Public Member Functions}{section*.32}{}}
\newlabel{classDevice_1_1DLtdbGBTx_a82e100dd9377e5a521546236eea20b0d}{{5.19}{21}{Public Member Functions}{section*.32}{}}
\newlabel{classDevice_1_1DLtdbGBTx_a996f93c594f2f65910e61cc46c5e2852}{{5.19}{22}{Public Attributes}{section*.33}{}}
\@writefile{toc}{\contentsline {section}{\numberline {5.20}Device\discretionary {-}{}{}:\discretionary {-}{}{}:D\discretionary {-}{}{}Ltdb\discretionary {-}{}{}Gpio Class Reference}{22}{section.5.20}}
\newlabel{classDevice_1_1DLtdbGpio}{{5.20}{22}{Device\-:\-:D\-Ltdb\-Gpio Class Reference}{section.5.20}{}}
\newlabel{classDevice_1_1DLtdbGpio_ae95a908336c345f59e294d6ef8c64d03}{{5.20}{22}{Public Member Functions}{section*.34}{}}
\newlabel{classDevice_1_1DLtdbGpio_a4c4ee8b0f845acc2c47e03257052f04a}{{5.20}{22}{Public Member Functions}{section*.34}{}}
\newlabel{classDevice_1_1DLtdbGpio_abd4332008d1c728d32281276658e3420}{{5.20}{23}{Public Attributes}{section*.35}{}}
\@writefile{toc}{\contentsline {subsection}{\numberline {5.20.1}Member Function Documentation}{23}{subsection.5.20.1}}
\@writefile{toc}{\contentsline {subsubsection}{\numberline {5.20.1.1}call\discretionary {-}{}{}Configure\discretionary {-}{}{}A\discretionary {-}{}{}D\discretionary {-}{}{}C}{23}{subsubsection.5.20.1.1}}
\newlabel{classDevice_1_1DLtdbGpio_a38546031243d4ce86d71865845788d95}{{5.20.1.1}{23}{call\-Configure\-A\-D\-C}{subsubsection.5.20.1.1}{}}
\@writefile{toc}{\contentsline {subsubsection}{\numberline {5.20.1.2}call\discretionary {-}{}{}Power\discretionary {-}{}{}Off}{23}{subsubsection.5.20.1.2}}
\newlabel{classDevice_1_1DLtdbGpio_aade5c9ee972946c3b68b52478c035ef4}{{5.20.1.2}{23}{call\-Power\-Off}{subsubsection.5.20.1.2}{}}
\@writefile{toc}{\contentsline {subsubsection}{\numberline {5.20.1.3}call\discretionary {-}{}{}Power\discretionary {-}{}{}On}{23}{subsubsection.5.20.1.3}}
\newlabel{classDevice_1_1DLtdbGpio_a7511621c15b1160a9273e47cf9e4c076}{{5.20.1.3}{23}{call\-Power\-On}{subsubsection.5.20.1.3}{}}
\@writefile{toc}{\contentsline {subsubsection}{\numberline {5.20.1.4}call\discretionary {-}{}{}Reset\discretionary {-}{}{}A\discretionary {-}{}{}D\discretionary {-}{}{}C}{23}{subsubsection.5.20.1.4}}
\newlabel{classDevice_1_1DLtdbGpio_a9171d721461e11d4383365cf77aa2cdf}{{5.20.1.4}{23}{call\-Reset\-A\-D\-C}{subsubsection.5.20.1.4}{}}
\@writefile{toc}{\contentsline {subsubsection}{\numberline {5.20.1.5}configure\discretionary {-}{}{}A\discretionary {-}{}{}D\discretionary {-}{}{}C}{23}{subsubsection.5.20.1.5}}
\newlabel{classDevice_1_1DLtdbGpio_a094cbc1a98dd4bb2a3a40ec0bfd51d68}{{5.20.1.5}{23}{configure\-A\-D\-C}{subsubsection.5.20.1.5}{}}
\gdef \PWST@iv{1}
\gdef \PWST@v{1}
\gdef \PWST@vi{1}
\gdef \PWST@vii{1}
\gdef \PWST@viii{1}
\@writefile{toc}{\contentsline {subsubsection}{\numberline {5.20.1.6}power}{24}{subsubsection.5.20.1.6}}
\newlabel{classDevice_1_1DLtdbGpio_ae7bc54a8f9359c1c77fab753f49ffd0b}{{5.20.1.6}{24}{power}{subsubsection.5.20.1.6}{}}
\@writefile{toc}{\contentsline {subsubsection}{\numberline {5.20.1.7}reset\discretionary {-}{}{}A\discretionary {-}{}{}D\discretionary {-}{}{}C}{24}{subsubsection.5.20.1.7}}
\newlabel{classDevice_1_1DLtdbGpio_ab5e4a01755fd59d015e17742f513a127}{{5.20.1.7}{24}{reset\-A\-D\-C}{subsubsection.5.20.1.7}{}}
\@writefile{toc}{\contentsline {subsubsection}{\numberline {5.20.1.8}reset\discretionary {-}{}{}G\discretionary {-}{}{}B\discretionary {-}{}{}Tx}{24}{subsubsection.5.20.1.8}}
\newlabel{classDevice_1_1DLtdbGpio_ac39988431ad4eaf17895f7e709343602}{{5.20.1.8}{24}{reset\-G\-B\-Tx}{subsubsection.5.20.1.8}{}}
\@writefile{toc}{\contentsline {subsubsection}{\numberline {5.20.1.9}reset\discretionary {-}{}{}L\discretionary {-}{}{}O\discretionary {-}{}{}Cx}{24}{subsubsection.5.20.1.9}}
\newlabel{classDevice_1_1DLtdbGpio_a8dfbf693a25b1f128106291f3ce0e01d}{{5.20.1.9}{24}{reset\-L\-O\-Cx}{subsubsection.5.20.1.9}{}}
\@writefile{toc}{\contentsline {subsubsection}{\numberline {5.20.1.10}reset\discretionary {-}{}{}M\discretionary {-}{}{}T\discretionary {-}{}{}Rx}{25}{subsubsection.5.20.1.10}}
\newlabel{classDevice_1_1DLtdbGpio_aa1eaa4aec0cc41f13a2306b01cef47c8}{{5.20.1.10}{25}{reset\-M\-T\-Rx}{subsubsection.5.20.1.10}{}}
\gdef \PWST@ix{1}
\gdef \PWST@x{1}
\@writefile{toc}{\contentsline {subsubsection}{\numberline {5.20.1.11}reset\discretionary {-}{}{}M\discretionary {-}{}{}Tx}{26}{subsubsection.5.20.1.11}}
\newlabel{classDevice_1_1DLtdbGpio_a57a69e12b90b139aa193e0c1808ac961}{{5.20.1.11}{26}{reset\-M\-Tx}{subsubsection.5.20.1.11}{}}
\@writefile{toc}{\contentsline {section}{\numberline {5.21}Device\discretionary {-}{}{}:\discretionary {-}{}{}:D\discretionary {-}{}{}Ltdb\discretionary {-}{}{}L\discretionary {-}{}{}O\discretionary {-}{}{}Cx2 Class Reference}{26}{section.5.21}}
\newlabel{classDevice_1_1DLtdbLOCx2}{{5.21}{26}{Device\-:\-:D\-Ltdb\-L\-O\-Cx2 Class Reference}{section.5.21}{}}
\newlabel{classDevice_1_1DLtdbLOCx2_a5fadd1dfa03a1d3a3450ac0aee1d03a1}{{5.21}{26}{Public Member Functions}{section*.36}{}}
\newlabel{classDevice_1_1DLtdbLOCx2_a44496db31fd3d59e7937e8e43d5249bd}{{5.21}{26}{Public Member Functions}{section*.36}{}}
\newlabel{classDevice_1_1DLtdbLOCx2_ac3747bcae1b3fde7e3c607422ebbdfc2}{{5.21}{26}{Public Member Functions}{section*.36}{}}
\newlabel{classDevice_1_1DLtdbLOCx2_a95be173fa998134e03625c4b1a21b12b}{{5.21}{26}{Public Member Functions}{section*.36}{}}
\newlabel{classDevice_1_1DLtdbLOCx2_ae700c198b6123872988e75c58cb4477b}{{5.21}{26}{Public Member Functions}{section*.36}{}}
\newlabel{classDevice_1_1DLtdbLOCx2_a1aa635d5dcf5b387c8df36712b33226e}{{5.21}{26}{Public Member Functions}{section*.36}{}}
\newlabel{classDevice_1_1DLtdbLOCx2_a1f683687af4ea9c3f69f9ce0a8c0b0d5}{{5.21}{26}{Public Member Functions}{section*.36}{}}
\newlabel{classDevice_1_1DLtdbLOCx2_acffba3863884d39736505c4ef71aa317}{{5.21}{26}{Public Member Functions}{section*.36}{}}
\newlabel{classDevice_1_1DLtdbLOCx2_ab1859251d71268f17f2f1b32cb375fff}{{5.21}{26}{Public Member Functions}{section*.36}{}}
\newlabel{classDevice_1_1DLtdbLOCx2_afb758c8c7a553a4dafa36aeba6894361}{{5.21}{26}{Public Member Functions}{section*.36}{}}
\newlabel{classDevice_1_1DLtdbLOCx2_ad8cda5fe60fe9f53e89265a16c2bdde8}{{5.21}{26}{Public Member Functions}{section*.36}{}}
\newlabel{classDevice_1_1DLtdbLOCx2_a47d70aec7965c4e82efe9bced0ebecc5}{{5.21}{26}{Public Member Functions}{section*.36}{}}
\newlabel{classDevice_1_1DLtdbLOCx2_a6bc3ea6b082ddc978107f71111ca818e}{{5.21}{26}{Public Member Functions}{section*.36}{}}
\newlabel{classDevice_1_1DLtdbLOCx2_a8f5716334d531145eba7eb49986bf208}{{5.21}{26}{Public Member Functions}{section*.36}{}}
\newlabel{classDevice_1_1DLtdbLOCx2_aa337e7c9025ab90c9419b2583f26a4ee}{{5.21}{27}{Public Attributes}{section*.37}{}}
\@writefile{toc}{\contentsline {section}{\numberline {5.22}Device\discretionary {-}{}{}:\discretionary {-}{}{}:D\discretionary {-}{}{}Ltdb\discretionary {-}{}{}Mtrx Class Reference}{27}{section.5.22}}
\newlabel{classDevice_1_1DLtdbMtrx}{{5.22}{27}{Device\-:\-:D\-Ltdb\-Mtrx Class Reference}{section.5.22}{}}
\newlabel{classDevice_1_1DLtdbMtrx_acf620d761490b3ccc89e34bcea864f0f}{{5.22}{27}{Public Member Functions}{section*.38}{}}
\newlabel{classDevice_1_1DLtdbMtrx_a27a76cd963ffc6678e95a95511f27a82}{{5.22}{27}{Public Member Functions}{section*.38}{}}
\newlabel{classDevice_1_1DLtdbMtrx_a94b66c0e04568b0d2544cdd71c4eb279}{{5.22}{27}{Public Member Functions}{section*.38}{}}
\newlabel{classDevice_1_1DLtdbMtrx_a941d9fb807c378597e197917cdc56eb6}{{5.22}{27}{Public Attributes}{section*.39}{}}
\@writefile{toc}{\contentsline {section}{\numberline {5.23}Device\discretionary {-}{}{}:\discretionary {-}{}{}:D\discretionary {-}{}{}Ltdb\discretionary {-}{}{}M\discretionary {-}{}{}Tx Class Reference}{27}{section.5.23}}
\newlabel{classDevice_1_1DLtdbMTx}{{5.23}{27}{Device\-:\-:D\-Ltdb\-M\-Tx Class Reference}{section.5.23}{}}
\newlabel{classDevice_1_1DLtdbMTx_afa74bda6532e0dd76f65828c8c615544}{{5.23}{28}{Public Member Functions}{section*.40}{}}
\newlabel{classDevice_1_1DLtdbMTx_af4c22f3901b40a7786cf78874109e844}{{5.23}{28}{Public Member Functions}{section*.40}{}}
\newlabel{classDevice_1_1DLtdbMTx_ac98a8aff4500241a3fcb2f89eb7ed806}{{5.23}{28}{Public Member Functions}{section*.40}{}}
\newlabel{classDevice_1_1DLtdbMTx_a8cfb96e80a77ef446e57c0b62771fedf}{{5.23}{28}{Public Member Functions}{section*.40}{}}
\newlabel{classDevice_1_1DLtdbMTx_ad3b7dc253f336ccb280efa038447f250}{{5.23}{28}{Public Member Functions}{section*.40}{}}
\newlabel{classDevice_1_1DLtdbMTx_a2baa0afc0c624a54b7019a1eec7c6f57}{{5.23}{28}{Public Member Functions}{section*.40}{}}
\newlabel{classDevice_1_1DLtdbMTx_a46473c21f56376c5d8c3b997cec299b7}{{5.23}{28}{Public Member Functions}{section*.40}{}}
\newlabel{classDevice_1_1DLtdbMTx_a11330352b1f9cf114a41d156aa230d83}{{5.23}{28}{Public Member Functions}{section*.40}{}}
\newlabel{classDevice_1_1DLtdbMTx_a7cde314297ab9231cefd7c91fb164ee9}{{5.23}{28}{Public Attributes}{section*.41}{}}
\@writefile{toc}{\contentsline {section}{\numberline {5.24}Device\discretionary {-}{}{}:\discretionary {-}{}{}:D\discretionary {-}{}{}Ltdb\discretionary {-}{}{}Sca Class Reference}{28}{section.5.24}}
\newlabel{classDevice_1_1DLtdbSca}{{5.24}{28}{Device\-:\-:D\-Ltdb\-Sca Class Reference}{section.5.24}{}}
\newlabel{classDevice_1_1DLtdbSca_a9569fd65b7efa5c7a2e3fb3faa1fd09d}{{5.24}{28}{Public Member Functions}{section*.42}{}}
\newlabel{classDevice_1_1DLtdbSca_a526dff1d8aeb273fe88f66267917511e}{{5.24}{28}{Public Member Functions}{section*.42}{}}
\newlabel{classDevice_1_1DLtdbSca_a1aed2e553e3b4be7682850c3a21657ab}{{5.24}{28}{Public Member Functions}{section*.42}{}}
\newlabel{classDevice_1_1DLtdbSca_a8227857a9eae85bd98e900f7fc9c7e7b}{{5.24}{28}{Public Member Functions}{section*.42}{}}
\newlabel{classDevice_1_1DLtdbSca_aef0c9ff5b573c5a71cbac2ba21ccb8c4}{{5.24}{28}{Public Member Functions}{section*.42}{}}
\newlabel{classDevice_1_1DLtdbSca_ac167a118d1e08ad311fd1c328bb20cec}{{5.24}{28}{Public Member Functions}{section*.42}{}}
\newlabel{classDevice_1_1DLtdbSca_a365314143a276a51f9cf45d7d9e4c653}{{5.24}{28}{Public Member Functions}{section*.42}{}}
\newlabel{classDevice_1_1DLtdbSca_a6a827b560613d5316335b05a3153e555}{{5.24}{28}{Public Member Functions}{section*.42}{}}
\newlabel{classDevice_1_1DLtdbSca_afb0b2311cd815da9aaad6aee4ec874e1}{{5.24}{28}{Public Member Functions}{section*.42}{}}
\newlabel{classDevice_1_1DLtdbSca_acbd1c0ec687688b50876866f07a5edff}{{5.24}{28}{Public Member Functions}{section*.42}{}}
\newlabel{classDevice_1_1DLtdbSca_ad52d088760abd1690ad12bdade1d385c}{{5.24}{28}{Public Member Functions}{section*.42}{}}
\newlabel{classDevice_1_1DLtdbSca_a5450f1df9e0808c09e1f14fdae7e432a}{{5.24}{28}{Public Member Functions}{section*.42}{}}
\newlabel{classDevice_1_1DLtdbSca_a4793094dfd1523c1f553ef8c252a7349}{{5.24}{28}{Public Member Functions}{section*.42}{}}
\newlabel{classDevice_1_1DLtdbSca_a8bed1f15f444359fa53c2c61709fc41a}{{5.24}{28}{Public Member Functions}{section*.42}{}}
\newlabel{classDevice_1_1DLtdbSca_a6c46ca7d60f2c5e3da7afe5b16785574}{{5.24}{28}{Public Member Functions}{section*.42}{}}
\newlabel{classDevice_1_1DLtdbSca_a023acf93876372b7fb886b5ed430090a}{{5.24}{28}{Public Member Functions}{section*.42}{}}
\newlabel{classDevice_1_1DLtdbSca_aafc642c3b22a9973794fab62fdee75fc}{{5.24}{28}{Public Member Functions}{section*.42}{}}
\newlabel{classDevice_1_1DLtdbSca_a466dbf0f3bdccc115391da03c3d314dd}{{5.24}{28}{Public Member Functions}{section*.42}{}}
\newlabel{classDevice_1_1DLtdbSca_ab826aa9a141a6a47e0d9ae5eaa53d883}{{5.24}{28}{Public Member Functions}{section*.42}{}}
\newlabel{classDevice_1_1DLtdbSca_a3cc65532e58d76c5f78d94b647d669e9}{{5.24}{29}{Public Member Functions}{section*.42}{}}
\newlabel{classDevice_1_1DLtdbSca_a39ccbf319de8e8aea8c1e9f2b5952144}{{5.24}{29}{Public Member Functions}{section*.42}{}}
\newlabel{classDevice_1_1DLtdbSca_a38d91d178adff3a8ca97f085e097e950}{{5.24}{29}{Public Member Functions}{section*.42}{}}
\newlabel{classDevice_1_1DLtdbSca_a862883d279038e400a51edad6d94d49f}{{5.24}{29}{Public Member Functions}{section*.42}{}}
\newlabel{classDevice_1_1DLtdbSca_aa877e9cac8aa58f1f8e95b6c99a56420}{{5.24}{29}{Public Member Functions}{section*.42}{}}
\newlabel{classDevice_1_1DLtdbSca_a7a76a9d3d70754ed6a1ede7999156d2a}{{5.24}{29}{Public Member Functions}{section*.42}{}}
\newlabel{classDevice_1_1DLtdbSca_a3855c1535c7bb4da62e9f1cafca104f4}{{5.24}{29}{Public Member Functions}{section*.42}{}}
\newlabel{classDevice_1_1DLtdbSca_a6c1f242d82df904e072810c6353f3d64}{{5.24}{29}{Public Member Functions}{section*.42}{}}
\newlabel{classDevice_1_1DLtdbSca_aefae13e0dfb1bf5cfcd5989fe3d487f1}{{5.24}{29}{Public Member Functions}{section*.42}{}}
\newlabel{classDevice_1_1DLtdbSca_a6e53f96e8e9c3a8c5908f76dcc9a6330}{{5.24}{29}{Public Member Functions}{section*.42}{}}
\newlabel{classDevice_1_1DLtdbSca_abee169ecc1244030bd045721581c6523}{{5.24}{29}{Public Member Functions}{section*.42}{}}
\newlabel{classDevice_1_1DLtdbSca_a918bb1869123b0fe35370352e7b214e9}{{5.24}{29}{Public Member Functions}{section*.42}{}}
\newlabel{classDevice_1_1DLtdbSca_a5bc33f44e820216b1a76505966708170}{{5.24}{29}{Public Member Functions}{section*.42}{}}
\newlabel{classDevice_1_1DLtdbSca_a25c3613624820b50605a70995fd0c98d}{{5.24}{29}{Public Member Functions}{section*.42}{}}
\newlabel{classDevice_1_1DLtdbSca_a472ba07e170b84dd02fb456f46d298d7}{{5.24}{29}{Public Member Functions}{section*.42}{}}
\newlabel{classDevice_1_1DLtdbSca_ac143a7656a6ae23b97d686ee0a26322e}{{5.24}{29}{Public Member Functions}{section*.42}{}}
\newlabel{classDevice_1_1DLtdbSca_a39461047ba3ff5bf8fb260c71fb0d3ab}{{5.24}{29}{Public Attributes}{section*.43}{}}
\@writefile{toc}{\contentsline {section}{\numberline {5.25}Device\discretionary {-}{}{}:\discretionary {-}{}{}:D\discretionary {-}{}{}Mapping Class Reference}{29}{section.5.25}}
\newlabel{classDevice_1_1DMapping}{{5.25}{29}{Device\-:\-:D\-Mapping Class Reference}{section.5.25}{}}
\newlabel{classDevice_1_1DMapping_a0f7d7539fefadde4e6a241e8611f7674}{{5.25}{29}{Public Member Functions}{section*.44}{}}
\newlabel{classDevice_1_1DMapping_a4a8ad1bd96bb433cfa0e15bd8c8e8150}{{5.25}{29}{Public Member Functions}{section*.44}{}}
\newlabel{classDevice_1_1DMapping_a2dc731f7f81ddecdf86cdd908334cba5}{{5.25}{29}{Public Member Functions}{section*.44}{}}
\newlabel{classDevice_1_1DMapping_a3d36f2effe6d7f870a5f00c557fd9ce9}{{5.25}{29}{Public Member Functions}{section*.44}{}}
\newlabel{classDevice_1_1DMapping_a93839af7ae8f6a59b6d71d76e06df4b0}{{5.25}{29}{Public Member Functions}{section*.44}{}}
\newlabel{classDevice_1_1DMapping_aec79b24715811d7f5771a021cbad952b}{{5.25}{29}{Public Member Functions}{section*.44}{}}
\newlabel{classDevice_1_1DMapping_a72e01c962c4a4ff70598215806e73fed}{{5.25}{29}{Public Member Functions}{section*.44}{}}
\newlabel{classDevice_1_1DMapping_a034545e0dd8fb75f42a9f3b0a2f96dec}{{5.25}{29}{Public Member Functions}{section*.44}{}}
\newlabel{classDevice_1_1DMapping_adbb19dcfc0e53735147afed6d3d9c5a0}{{5.25}{29}{Public Member Functions}{section*.44}{}}
\newlabel{classDevice_1_1DMapping_a31f54adb63dad3538288797cae8c1ded}{{5.25}{29}{Public Member Functions}{section*.44}{}}
\newlabel{classDevice_1_1DMapping_af3079606dcd0d0019745e1167a1f2a31}{{5.25}{29}{Public Member Functions}{section*.44}{}}
\newlabel{classDevice_1_1DMapping_a282271f04e6c849241643d8a904119c4}{{5.25}{29}{Public Member Functions}{section*.44}{}}
\newlabel{classDevice_1_1DMapping_aa59cbcb57d0aa68a9d28b6306c9a698a}{{5.25}{29}{Public Member Functions}{section*.44}{}}
\newlabel{classDevice_1_1DMapping_a030598abfdad7e61df40277ffab4dc85}{{5.25}{30}{Public Member Functions}{section*.44}{}}
\newlabel{classDevice_1_1DMapping_a66e5ff6763daba9bb312d43a86f2f2a6}{{5.25}{30}{Public Member Functions}{section*.44}{}}
\newlabel{classDevice_1_1DMapping_ab4b376818df119bf94409e43e41145a1}{{5.25}{30}{Public Member Functions}{section*.44}{}}
\newlabel{classDevice_1_1DMapping_a51132c1d900ee576ea545d76f8da6fc5}{{5.25}{30}{Public Member Functions}{section*.44}{}}
\newlabel{classDevice_1_1DMapping_a4ea7a78e520894c825c8adf432e0a2be}{{5.25}{30}{Public Member Functions}{section*.44}{}}
\newlabel{classDevice_1_1DMapping_a7e3a48088689079ca00ae390755caaa2}{{5.25}{30}{Public Member Functions}{section*.44}{}}
\newlabel{classDevice_1_1DMapping_a42c19c6adc415569b852d21b4f8e4852}{{5.25}{30}{Public Member Functions}{section*.44}{}}
\newlabel{classDevice_1_1DMapping_a0fb011d79ff7f5eef13076898ea59761}{{5.25}{30}{Public Member Functions}{section*.44}{}}
\newlabel{classDevice_1_1DMapping_ace760b832467842106e9367179803609}{{5.25}{30}{Public Member Functions}{section*.44}{}}
\newlabel{classDevice_1_1DMapping_a5b6db091c0f587127d2f4418057fd8d1}{{5.25}{30}{Public Member Functions}{section*.44}{}}
\newlabel{classDevice_1_1DMapping_a7676cd9a610beb3e6fa26ba84d9bc366}{{5.25}{30}{Public Member Functions}{section*.44}{}}
\newlabel{classDevice_1_1DMapping_ac29f307c3dd4e3df75e0b2b02936c64f}{{5.25}{30}{Public Member Functions}{section*.44}{}}
\newlabel{classDevice_1_1DMapping_a921a268479fae434b673ab6991d0bb57}{{5.25}{30}{Public Member Functions}{section*.44}{}}
\newlabel{classDevice_1_1DMapping_a152cd7fecb1f24dacc9dd47c1868d3f4}{{5.25}{30}{Public Member Functions}{section*.44}{}}
\newlabel{classDevice_1_1DMapping_ab0dd4da64a159f2f3ed44f7f4d46a7d7}{{5.25}{30}{Public Member Functions}{section*.44}{}}
\newlabel{classDevice_1_1DMapping_ab55e96ba4048a5b23496c523eddce622}{{5.25}{30}{Public Member Functions}{section*.44}{}}
\newlabel{classDevice_1_1DMapping_a648675bd3292921b1efaa6aa3fb3fcd3}{{5.25}{30}{Public Member Functions}{section*.44}{}}
\newlabel{classDevice_1_1DMapping_a55a7501a270f814672bfdcd33647da09}{{5.25}{30}{Public Member Functions}{section*.44}{}}
\newlabel{classDevice_1_1DMapping_a360ef52a5896ef5422336f88f6d78bf0}{{5.25}{30}{Public Member Functions}{section*.44}{}}
\newlabel{classDevice_1_1DMapping_a667f8c8caa54598c9dc726689791573c}{{5.25}{30}{Public Member Functions}{section*.44}{}}
\newlabel{classDevice_1_1DMapping_ae7c1df7f76a06563ea3f42b96f07794f}{{5.25}{30}{Public Member Functions}{section*.44}{}}
\newlabel{classDevice_1_1DMapping_a62274790a0ddab51b2ff2056d01889d1}{{5.25}{30}{Public Member Functions}{section*.44}{}}
\newlabel{classDevice_1_1DMapping_a5232a52954953b98458e54e2ffd1c24c}{{5.25}{30}{Public Member Functions}{section*.44}{}}
\newlabel{classDevice_1_1DMapping_ae9030235864dca7bb45591e158859e1c}{{5.25}{30}{Public Attributes}{section*.45}{}}
\@writefile{toc}{\contentsline {section}{\numberline {5.26}Device\discretionary {-}{}{}:\discretionary {-}{}{}:D\discretionary {-}{}{}Mon Class Reference}{30}{section.5.26}}
\newlabel{classDevice_1_1DMon}{{5.26}{30}{Device\-:\-:D\-Mon Class Reference}{section.5.26}{}}
\newlabel{classDevice_1_1DMon_ab79de4bb34fd1bbe9acdf9c8969170e8}{{5.26}{30}{Public Member Functions}{section*.46}{}}
\@writefile{toc}{\contentsline {section}{\numberline {5.27}Device\discretionary {-}{}{}:\discretionary {-}{}{}:D\discretionary {-}{}{}S\discretionary {-}{}{}C\discretionary {-}{}{}Mon Class Reference}{31}{section.5.27}}
\newlabel{classDevice_1_1DSCMon}{{5.27}{31}{Device\-:\-:D\-S\-C\-Mon Class Reference}{section.5.27}{}}
\newlabel{classDevice_1_1DSCMon_a15fcd348bf19a0c617599fe14a59227d}{{5.27}{31}{Public Member Functions}{section*.47}{}}
\@writefile{toc}{\contentsline {section}{\numberline {5.28}Device\discretionary {-}{}{}:\discretionary {-}{}{}:D\discretionary {-}{}{}Status\discretionary {-}{}{}Latome Class Reference}{31}{section.5.28}}
\newlabel{classDevice_1_1DStatusLatome}{{5.28}{31}{Device\-:\-:D\-Status\-Latome Class Reference}{section.5.28}{}}
\newlabel{classDevice_1_1DStatusLatome_ab0f35d5678f93d3e6d9a17772b9db4a6}{{5.28}{31}{Public Member Functions}{section*.48}{}}
\newlabel{classDevice_1_1DStatusLatome_a20faa2ac973fb9302039ace446ca0545}{{5.28}{31}{Public Member Functions}{section*.48}{}}
\newlabel{classDevice_1_1DStatusLatome_a7598aa3f199fcc5c934506672042fbec}{{5.28}{31}{Public Member Functions}{section*.48}{}}
\newlabel{classDevice_1_1DStatusLatome_abb4a20964d905014bfa6b15c4f82b716}{{5.28}{31}{Public Member Functions}{section*.48}{}}
\newlabel{classDevice_1_1DStatusLatome_aa4f707aa028123295aa35612db59d316}{{5.28}{31}{Public Member Functions}{section*.48}{}}
\newlabel{classDevice_1_1DStatusLatome_a50fd4083e9cd11938428441c52e29e9f}{{5.28}{31}{Public Member Functions}{section*.48}{}}
\newlabel{classDevice_1_1DStatusLatome_aa224eb482cc0c860b35765ed052a96e6}{{5.28}{31}{Public Member Functions}{section*.48}{}}
\newlabel{classDevice_1_1DStatusLatome_a1a0d31861467ff4e4dcb219b05c249be}{{5.28}{31}{Public Member Functions}{section*.48}{}}
\newlabel{classDevice_1_1DStatusLatome_a67135f8ac71e4f589aa200d1dd467e0e}{{5.28}{31}{Public Member Functions}{section*.48}{}}
\newlabel{classDevice_1_1DStatusLatome_a71457a496fa3627120f7d8a81f85fffd}{{5.28}{31}{Public Member Functions}{section*.48}{}}
\newlabel{classDevice_1_1DStatusLatome_a122e92b26c44c8647ec6434c73b35466}{{5.28}{31}{Public Member Functions}{section*.48}{}}
\newlabel{classDevice_1_1DStatusLatome_a8f258c88b6cae53145746d380266f2b4}{{5.28}{31}{Public Member Functions}{section*.48}{}}
\newlabel{classDevice_1_1DStatusLatome_ab7ab3989035ee309cea2a3172506e9ad}{{5.28}{31}{Public Member Functions}{section*.48}{}}
\newlabel{classDevice_1_1DStatusLatome_a1da7e5657838257f52f9ad7df2b12ac1}{{5.28}{31}{Public Member Functions}{section*.48}{}}
\newlabel{classDevice_1_1DStatusLatome_aa3396709fa8219249c6dbf0049c987a5}{{5.28}{31}{Public Member Functions}{section*.48}{}}
\newlabel{classDevice_1_1DStatusLatome_af22e4a27ecd9a028e3b90e0460323ab5}{{5.28}{31}{Public Member Functions}{section*.48}{}}
\newlabel{classDevice_1_1DStatusLatome_a66e599687e7256bcec80e45406d4f3e6}{{5.28}{31}{Public Member Functions}{section*.48}{}}
\newlabel{classDevice_1_1DStatusLatome_a3d220e25ba88deed746298c9564c5fa0}{{5.28}{31}{Public Member Functions}{section*.48}{}}
\newlabel{classDevice_1_1DStatusLatome_a4c099bd228fcdcd2c34805819f3e3853}{{5.28}{31}{Public Member Functions}{section*.48}{}}
\newlabel{classDevice_1_1DStatusLatome_a856d7872df58eb33c23f7bf87b15044c}{{5.28}{31}{Public Member Functions}{section*.48}{}}
\newlabel{classDevice_1_1DStatusLatome_aea2e0dfa17a7321369479fe9ce37c417}{{5.28}{32}{Public Member Functions}{section*.48}{}}
\newlabel{classDevice_1_1DStatusLatome_a7d41dec353e9244139e8e77ba7bd4c50}{{5.28}{32}{Public Member Functions}{section*.48}{}}
\newlabel{classDevice_1_1DStatusLatome_a4fdf9aa1eb494d5716127f6604bb1e77}{{5.28}{32}{Public Member Functions}{section*.48}{}}
\newlabel{classDevice_1_1DStatusLatome_a9ac51e44989e61ec2c463f81ef7fcb70}{{5.28}{32}{Public Member Functions}{section*.48}{}}
\newlabel{classDevice_1_1DStatusLatome_a81860e1b753ce431b69f0801d02fa6f1}{{5.28}{32}{Public Attributes}{section*.49}{}}
\@writefile{toc}{\contentsline {section}{\numberline {5.29}Device\discretionary {-}{}{}:\discretionary {-}{}{}:D\discretionary {-}{}{}Stress\discretionary {-}{}{}Test Class Reference}{32}{section.5.29}}
\newlabel{classDevice_1_1DStressTest}{{5.29}{32}{Device\-:\-:D\-Stress\-Test Class Reference}{section.5.29}{}}
\newlabel{classDevice_1_1DStressTest_aa2491a5d1f1f85abe7bfa29fb37b3923}{{5.29}{32}{Public Member Functions}{section*.50}{}}
\newlabel{classDevice_1_1DStressTest_ad2e5de930fa203f0ee368c15dabc9c80}{{5.29}{32}{Public Member Functions}{section*.50}{}}
\newlabel{classDevice_1_1DStressTest_a705b0ebff796829ea16afd70a04a6024}{{5.29}{32}{Public Member Functions}{section*.50}{}}
\newlabel{classDevice_1_1DStressTest_a3c21496d963dda95002bfd0372ba8f4f}{{5.29}{32}{Public Attributes}{section*.51}{}}
\@writefile{toc}{\contentsline {section}{\numberline {5.30}Fiber\discretionary {-}{}{}Id Class Reference}{32}{section.5.30}}
\newlabel{classFiberId}{{5.30}{32}{Fiber\-Id Class Reference}{section.5.30}{}}
\newlabel{classFiberId_a5210d2cd679bb1f36d2820e30b234e15}{{5.30}{33}{Public Member Functions}{section*.52}{}}
\newlabel{classFiberId_a15bc87540b52b060b9d3a3a5e070afca}{{5.30}{33}{Public Member Functions}{section*.52}{}}
\newlabel{classFiberId_a5d826f02a5adff05b147505afeff2daf}{{5.30}{33}{Public Member Functions}{section*.52}{}}
\newlabel{classFiberId_a848aab658d1aaa61ac29b668c5a83156}{{5.30}{33}{Public Member Functions}{section*.52}{}}
\newlabel{classFiberId_aa4345239a499b85743e03d64cbf2fe68}{{5.30}{33}{Protected Attributes}{section*.53}{}}
\newlabel{classFiberId_a58bd24e6bd9323be2f792443f07accec}{{5.30}{33}{Protected Attributes}{section*.53}{}}
\@writefile{toc}{\contentsline {section}{\numberline {5.31}Device\discretionary {-}{}{}:\discretionary {-}{}{}:Node\discretionary {-}{}{}Id Class Reference}{33}{section.5.31}}
\newlabel{classDevice_1_1NodeId}{{5.31}{33}{Device\-:\-:Node\-Id Class Reference}{section.5.31}{}}
\newlabel{classDevice_1_1NodeId_a41f3a61aa3dca72cbc072291fc222263}{{5.31}{33}{Static Public Attributes}{section*.54}{}}
\newlabel{classDevice_1_1NodeId_aca04795d44f5a3a24a5b69c56e0b3c65}{{5.31}{33}{Static Public Attributes}{section*.54}{}}
\newlabel{classDevice_1_1NodeId_a686556b622fa1935645840912826713e}{{5.31}{33}{Static Public Attributes}{section*.54}{}}
\newlabel{classDevice_1_1NodeId_ad988c6df08fcb1407e76c6a407ef647e}{{5.31}{33}{Static Public Attributes}{section*.54}{}}
\newlabel{classDevice_1_1NodeId_aca7c48b2bc4d303651f3e93bfb666298}{{5.31}{33}{Static Public Attributes}{section*.54}{}}
\newlabel{classDevice_1_1NodeId_a601598211a1ac947e1c2247f174b24fa}{{5.31}{33}{Static Public Attributes}{section*.54}{}}
\newlabel{classDevice_1_1NodeId_a05b2cbfb220010d325334ecfcdf4dafd}{{5.31}{33}{Static Public Attributes}{section*.54}{}}
\newlabel{classDevice_1_1NodeId_a0a631536e6fb08c1e603e7898002c764}{{5.31}{33}{Static Public Attributes}{section*.54}{}}
\newlabel{classDevice_1_1NodeId_af139acf61ad8c8d0e70f319b386a5820}{{5.31}{33}{Static Public Attributes}{section*.54}{}}
\newlabel{classDevice_1_1NodeId_a0c7754f08bbcca07629c3cd378088eaa}{{5.31}{33}{Static Public Attributes}{section*.54}{}}
\@writefile{toc}{\contentsline {section}{\numberline {5.32}Opc\discretionary {-}{}{}Server\discretionary {-}{}{}Callback Class Reference}{33}{section.5.32}}
\newlabel{classOpcServerCallback}{{5.32}{33}{Opc\-Server\-Callback Class Reference}{section.5.32}{}}
\gdef \PWST@xi{1}
\@writefile{toc}{\contentsline {subsection}{\numberline {5.32.1}Detailed Description}{34}{subsection.5.32.1}}
\@writefile{toc}{\contentsline {subsection}{\numberline {5.32.2}Constructor \& Destructor Documentation}{34}{subsection.5.32.2}}
\@writefile{toc}{\contentsline {subsubsection}{\numberline {5.32.2.1}Opc\discretionary {-}{}{}Server\discretionary {-}{}{}Callback}{34}{subsubsection.5.32.2.1}}
\newlabel{classOpcServerCallback_ab7c449907b115336ef62647917a04e27}{{5.32.2.1}{34}{Opc\-Server\-Callback}{subsubsection.5.32.2.1}{}}
\@writefile{toc}{\contentsline {subsubsection}{\numberline {5.32.2.2}$\sim $\discretionary {-}{}{}Opc\discretionary {-}{}{}Server\discretionary {-}{}{}Callback}{34}{subsubsection.5.32.2.2}}
\newlabel{classOpcServerCallback_a41deda447d6704cad1a97f8a126155e6}{{5.32.2.2}{34}{$\sim $\-Opc\-Server\-Callback}{subsubsection.5.32.2.2}{}}
\@writefile{toc}{\contentsline {subsection}{\numberline {5.32.3}Member Function Documentation}{34}{subsection.5.32.3}}
\@writefile{toc}{\contentsline {subsubsection}{\numberline {5.32.3.1}create\discretionary {-}{}{}Session}{34}{subsubsection.5.32.3.1}}
\newlabel{classOpcServerCallback_a4c4190c104288900e986e03e3fce35c1}{{5.32.3.1}{34}{create\-Session}{subsubsection.5.32.3.1}{}}
\@writefile{toc}{\contentsline {subsubsection}{\numberline {5.32.3.2}create\discretionary {-}{}{}Ua\discretionary {-}{}{}Server}{34}{subsubsection.5.32.3.2}}
\newlabel{classOpcServerCallback_ad90d97a1daa27638f36c7b6cec811d2e}{{5.32.3.2}{34}{create\-Ua\-Server}{subsubsection.5.32.3.2}{}}
\@writefile{toc}{\contentsline {subsubsection}{\numberline {5.32.3.3}logon\discretionary {-}{}{}Session\discretionary {-}{}{}User}{35}{subsubsection.5.32.3.3}}
\newlabel{classOpcServerCallback_ab757fbdd79800ec27e3d3eded7ba3511}{{5.32.3.3}{35}{logon\-Session\-User}{subsubsection.5.32.3.3}{}}
\gdef \PWST@xii{1}
\@writefile{toc}{\contentsline {section}{\numberline {5.33}Quasar\discretionary {-}{}{}Server Class Reference}{36}{section.5.33}}
\newlabel{classQuasarServer}{{5.33}{36}{Quasar\-Server Class Reference}{section.5.33}{}}
\newlabel{classQuasarServer_a1ee46fea63aadae3c8c314335c856a5d}{{5.33}{36}{Public Member Functions}{section*.56}{}}
\newlabel{classQuasarServer_ae4ee72c569d4bcfe00228f70a56a9331}{{5.33}{36}{Public Member Functions}{section*.56}{}}
\newlabel{classQuasarServer_a04364e9edf119ba533bc86ed392b14d6}{{5.33}{36}{Public Member Functions}{section*.56}{}}
\newlabel{classQuasarServer_a31eb47659010e61582a6270c6b314bc8}{{5.33}{36}{Public Member Functions}{section*.56}{}}
\@writefile{toc}{\contentsline {section}{\numberline {5.34}Quasar\discretionary {-}{}{}Server\discretionary {-}{}{}Callback Class Reference}{36}{section.5.34}}
\newlabel{classQuasarServerCallback}{{5.34}{36}{Quasar\-Server\-Callback Class Reference}{section.5.34}{}}
\gdef \PWST@xiii{1}
\@writefile{toc}{\contentsline {subsection}{\numberline {5.34.1}Constructor \& Destructor Documentation}{37}{subsection.5.34.1}}
\@writefile{toc}{\contentsline {subsubsection}{\numberline {5.34.1.1}Quasar\discretionary {-}{}{}Server\discretionary {-}{}{}Callback}{37}{subsubsection.5.34.1.1}}
\newlabel{classQuasarServerCallback_acba4f968ca0702a0ad10d1d6191639ab}{{5.34.1.1}{37}{Quasar\-Server\-Callback}{subsubsection.5.34.1.1}{}}
\@writefile{toc}{\contentsline {subsubsection}{\numberline {5.34.1.2}$\sim $\discretionary {-}{}{}Quasar\discretionary {-}{}{}Server\discretionary {-}{}{}Callback}{37}{subsubsection.5.34.1.2}}
\newlabel{classQuasarServerCallback_ad67ae2cbaf637c7588657940a6200d09}{{5.34.1.2}{37}{$\sim $\-Quasar\-Server\-Callback}{subsubsection.5.34.1.2}{}}
\@writefile{toc}{\contentsline {subsection}{\numberline {5.34.2}Member Function Documentation}{37}{subsection.5.34.2}}
\@writefile{toc}{\contentsline {subsubsection}{\numberline {5.34.2.1}create\discretionary {-}{}{}Session}{37}{subsubsection.5.34.2.1}}
\newlabel{classQuasarServerCallback_a7a0a5e0de786a3b72d94b07e16ed286c}{{5.34.2.1}{37}{create\-Session}{subsubsection.5.34.2.1}{}}
\@writefile{toc}{\contentsline {subsubsection}{\numberline {5.34.2.2}create\discretionary {-}{}{}Ua\discretionary {-}{}{}Server}{37}{subsubsection.5.34.2.2}}
\newlabel{classQuasarServerCallback_a7721d5aa734976e44d7bf2de85d77806}{{5.34.2.2}{37}{create\-Ua\-Server}{subsubsection.5.34.2.2}{}}
\@writefile{toc}{\contentsline {subsubsection}{\numberline {5.34.2.3}logon\discretionary {-}{}{}Session\discretionary {-}{}{}User}{37}{subsubsection.5.34.2.3}}
\newlabel{classQuasarServerCallback_aabd2fe62ee24d965a988172c2e8d1a58}{{5.34.2.3}{37}{logon\-Session\-User}{subsubsection.5.34.2.3}{}}
\gdef \PWST@xiv{1}
\@writefile{toc}{\contentsline {section}{\numberline {5.35}Server\discretionary {-}{}{}Config\discretionary {-}{}{}Xml Class Reference}{38}{section.5.35}}
\newlabel{classServerConfigXml}{{5.35}{38}{Server\-Config\-Xml Class Reference}{section.5.35}{}}
\newlabel{classServerConfigXml_ad5ccdefc51b4885e85e51c6dc92d3307}{{5.35}{38}{Public Member Functions}{section*.59}{}}
\@writefile{toc}{\contentsline {subsection}{\numberline {5.35.1}Detailed Description}{38}{subsection.5.35.1}}
\@writefile{toc}{\contentsline {subsection}{\numberline {5.35.2}Constructor \& Destructor Documentation}{38}{subsection.5.35.2}}
\@writefile{toc}{\contentsline {subsubsection}{\numberline {5.35.2.1}Server\discretionary {-}{}{}Config\discretionary {-}{}{}Xml}{38}{subsubsection.5.35.2.1}}
\newlabel{classServerConfigXml_a71120b7c17682f50ed86b65f1f1d0482}{{5.35.2.1}{38}{Server\-Config\-Xml}{subsubsection.5.35.2.1}{}}
\gdef \PWST@xv{2}
\@writefile{toc}{\contentsline {subsubsection}{\numberline {5.35.2.2}$\sim $\discretionary {-}{}{}Server\discretionary {-}{}{}Config\discretionary {-}{}{}Xml}{39}{subsubsection.5.35.2.2}}
\newlabel{classServerConfigXml_a808c61a8fa9b6ba78607d5e94eadd1e8}{{5.35.2.2}{39}{$\sim $\-Server\-Config\-Xml}{subsubsection.5.35.2.2}{}}
\@writefile{toc}{\contentsline {subsection}{\numberline {5.35.3}Member Function Documentation}{39}{subsection.5.35.3}}
\@writefile{toc}{\contentsline {subsubsection}{\numberline {5.35.3.1}load\discretionary {-}{}{}Configuration}{39}{subsubsection.5.35.3.1}}
\newlabel{classServerConfigXml_ae069e70e40b07cf27c231adafe329977}{{5.35.3.1}{39}{load\-Configuration}{subsubsection.5.35.3.1}{}}
\@writefile{toc}{\contentsline {subsubsection}{\numberline {5.35.3.2}save\discretionary {-}{}{}Configuration}{39}{subsubsection.5.35.3.2}}
\newlabel{classServerConfigXml_a73ca0c87860f8ead84688405ff94b5d6}{{5.35.3.2}{39}{save\-Configuration}{subsubsection.5.35.3.2}{}}
\@writefile{toc}{\contentsline {section}{\numberline {5.36}Ua\discretionary {-}{}{}Endpoint\discretionary {-}{}{}Xml Class Reference}{39}{section.5.36}}
\newlabel{classUaEndpointXml}{{5.36}{39}{Ua\-Endpoint\-Xml Class Reference}{section.5.36}{}}
\gdef \PWST@xvi{1}
\@writefile{toc}{\contentsline {subsection}{\numberline {5.36.1}Detailed Description}{40}{subsection.5.36.1}}
\@writefile{toc}{\contentsline {subsection}{\numberline {5.36.2}Constructor \& Destructor Documentation}{40}{subsection.5.36.2}}
\@writefile{toc}{\contentsline {subsubsection}{\numberline {5.36.2.1}Ua\discretionary {-}{}{}Endpoint\discretionary {-}{}{}Xml}{40}{subsubsection.5.36.2.1}}
\newlabel{classUaEndpointXml_a02823b55d623f41151f30e0c9352269c}{{5.36.2.1}{40}{Ua\-Endpoint\-Xml}{subsubsection.5.36.2.1}{}}
\@writefile{toc}{\contentsline {subsubsection}{\numberline {5.36.2.2}$\sim $\discretionary {-}{}{}Ua\discretionary {-}{}{}Endpoint\discretionary {-}{}{}Xml}{40}{subsubsection.5.36.2.2}}
\newlabel{classUaEndpointXml_a419fa6582e19b27beb6578bcb837449b}{{5.36.2.2}{40}{$\sim $\-Ua\-Endpoint\-Xml}{subsubsection.5.36.2.2}{}}
\@writefile{toc}{\contentsline {subsection}{\numberline {5.36.3}Member Function Documentation}{40}{subsection.5.36.3}}
\@writefile{toc}{\contentsline {subsubsection}{\numberline {5.36.3.1}set\discretionary {-}{}{}Xml\discretionary {-}{}{}Config}{40}{subsubsection.5.36.3.1}}
\newlabel{classUaEndpointXml_ac2d1102176a7b7dc18909a273670ff6c}{{5.36.3.1}{40}{set\-Xml\-Config}{subsubsection.5.36.3.1}{}}
\@writefile{toc}{\contentsline {chapter}{\numberline {6}File Documentation}{41}{chapter.6}}
\@writefile{lof}{\addvspace {10\p@ }}
\@writefile{lot}{\addvspace {10\p@ }}
\@writefile{toc}{\contentsline {section}{\numberline {6.1}/home/efortin/\discretionary {-}{}{}Opcua/opcualarltdbserver/\discretionary {-}{}{}Device/include/\discretionary {-}{}{}D\discretionary {-}{}{}Ltdb\discretionary {-}{}{}Gpio.h File Reference}{41}{section.6.1}}
\newlabel{DLtdbGpio_8h}{{6.1}{41}{/home/efortin/\-Opcua/opcualarltdbserver/\-Device/include/\-D\-Ltdb\-Gpio.h File Reference}{section.6.1}{}}
\@writefile{toc}{\contentsline {subsection}{\numberline {6.1.1}Detailed Description}{41}{subsection.6.1.1}}
\@writefile{toc}{\contentsline {section}{\numberline {6.2}/home/efortin/\discretionary {-}{}{}Opcua/opcualarltdbserver/\discretionary {-}{}{}Device/src/\discretionary {-}{}{}D\discretionary {-}{}{}Ltdb\discretionary {-}{}{}Gpio.cpp File Reference}{42}{section.6.2}}
\newlabel{DLtdbGpio_8cpp}{{6.2}{42}{/home/efortin/\-Opcua/opcualarltdbserver/\-Device/src/\-D\-Ltdb\-Gpio.cpp File Reference}{section.6.2}{}}
\@writefile{toc}{\contentsline {subsection}{\numberline {6.2.1}Detailed Description}{42}{subsection.6.2.1}}
\@writefile{toc}{\contentsline {section}{\numberline {6.3}/home/efortin/\discretionary {-}{}{}Opcua/opcualarltdbserver/\discretionary {-}{}{}Device/src/functions/\discretionary {-}{}{}D\discretionary {-}{}{}Ltdb\discretionary {-}{}{}Gpio\discretionary {-}{}{}\_\discretionary {-}{}{}functions.cpp File Reference}{42}{section.6.3}}
\newlabel{DLtdbGpio__functions_8cpp}{{6.3}{42}{/home/efortin/\-Opcua/opcualarltdbserver/\-Device/src/functions/\-D\-Ltdb\-Gpio\-\_\-functions.cpp File Reference}{section.6.3}{}}
\@writefile{toc}{\contentsline {subsection}{\numberline {6.3.1}Detailed Description}{42}{subsection.6.3.1}}
\@writefile{toc}{\contentsline {part}{Index}{44}{section*.62}}
